<?xml version="1.0" encoding="utf-8"?>
<!-- Generator: Adobe Illustrator 21.0.2, SVG Export Plug-In . SVG Version: 6.00 Build 0)  -->
<svg version="1.1" id="Calque_1" xmlns="http://www.w3.org/2000/svg" xmlns:xlink="http://www.w3.org/1999/xlink" x="0px" y="0px"
	 width="500px" height="500px" viewBox="0 0 500 500" style="enable-background:new 0 0 500 500;" xml:space="preserve">
<g transform="translate(-1782 2)">
	<g transform="translate(49.789 595.767)">
		<path d="M1744-255.8c-6,6.5-5.5,16.5,0.5,22.5c6,6,15.5,6,22,0l62-62c8-7,18.5-11.5,29.5-12h162.5c4.5,0,8,3.5,8,7.5l0,0v5
			c0,4.5-3.5,8-7.5,8l0,0h-57c-11-1.5-22,4.5-26.5,14.5c-3.5,10.5-0.5,22.5,8,29.5l18.5,18.5c14.5,13.5,34.5,20,54,18l136.5-19.5
			c6-0.5,12.5,0,18,2.5l-138.5,59.5c-11,4-23.5,5-35,2.5l-58.5-14.5c-14.5-4-28.5-9-42.5-14.5l-15.5-7c-19.5-8-41.5-3.5-56.5,11.5
			l-56,61c-6,6.5-5.5,16.5,0.5,22.5l0,0c3,2.5,7,4,11,4.5c4.5,0,8.5-2,11.5-5l56-61c5.5-5,13-6.5,20-4.5l15.5,7
			c15.5,6.5,31.5,12,47.5,16.5l58.5,14.5c18.5,4,37.5,2.5,55-4.5l140-59.5c10.5-4,19-13,21.5-24.5c1.5-9-1.5-18-8-24.5
			c-14-11.5-32-17-50-14.5l-136.5,19.5c-10,1-19.5-2.5-27-9l-8.5-8.5h43c22,0,40-17.5,40-39.5l0,0v-5c0-22-17.5-40-39.5-40l0,0
			h-162.5c-19.5,0.5-38,8.5-52,21.5L1744-255.8L1744-255.8z"/>
	</g>
	<path d="M2071.9,197.6c0,9,7,16,16,16l0,0h157.5c9,0,16-7,16-16l0,0v-61c7.5-1.5,13-8,13-15.5V59c0-9-7-16-16-16l0,0H2241
		c1-4,2-8,3-11.5c4.5-7.5,4.5-16.5,0.5-24.5c-4.5-6-11.5-9.5-19-9C2204-1,2183,7,2166,20c-17-13.5-37.5-21-59.5-22
		c-7.5-0.5-15,3-19,9c-4,7.5-4,17,0.5,24.5c1.5,3.5,2.5,7.5,2.5,11.5h-17c-9,0-16,7-16,16l0,0v62c0,7.5,5.5,14,13,15.5v61
		C2070.4,197.6,2071.9,197.6,2071.9,197.6z M2090.4,74.5h60v30.5h-60V74.5z M2123.4,42.5c0-3.5-0.5-7-1-10.5c7.5,2.5,15,6,21.5,10.5
		H2123.4z M2210.5,32.5c-0.5,3.5-1,7-1,10.5h-21C2195,38,2202.5,34.5,2210.5,32.5z M2242.5,105.1h-60V74.5h60V105.1z M2103.4,136.6
		H2229v45h-125.5V136.6z"/>
</g>
</svg>
